﻿[
    {
        "inputFile": "Content/Site.scss",
        "outputFile": "Content/Site.css"
    },
    {
        "inputFile": "Areas/ColleagueFinance/Content/ColleagueFinance.scss",
        "outputFile": "Areas/ColleagueFinance/Content/ColleagueFinance.css"
    },
    {
        "inputFile": "Areas/Finance/Content/Finance.scss",
        "outputFile": "Areas/Finance/Content/Finance.css"
    },
    {
        "inputFile": "Areas/Finance/Content/step-indicator.scss",
        "outputFile": "Areas/Finance/Content/step-indicator.css"
    },
    {
        "inputFile": "Areas/FinancialAid/Content/FinancialAid.scss",
        "outputFile": "Areas/FinancialAid/Content/FinancialAid.css"
    },
    {
        "inputFile": "Areas/FinancialAid/Content/ShoppingSheet.scss",
        "outputFile": "Areas/FinancialAid/Content/ShoppingSheet.css"
    },
    {
        "inputFile": "Areas/HumanResources/Content/HumanResources.scss",
        "outputFile": "Areas/HumanResources/Content/HumanResources.css"
    },
    {
        "inputFile": "Areas/Planning/Content/fullcalendar.scss",
        "outputFile": "Areas/Planning/Content/fullcalendar.css"
    },
    {
        "inputFile": "Areas/Planning/Content/Planning.scss",
        "outputFile": "Areas/Planning/Content/Planning.css"
    },
    {
        "inputFile": "Areas/ProjectsAccounting/Content/ProjectsAccounting.scss",
        "outputFile": "Areas/ProjectsAccounting/Content/ProjectsAccounting.css"
    },
    {
        "inputFile": "Areas/Student/Content/Grades.scss",
        "outputFile": "Areas/Student/Content/Grades.css"
    },
    {
        "inputFile": "Areas/Student/Content/Graduation.scss",
        "outputFile": "Areas/Student/Content/Graduation.css"
    },
    {
        "inputFile": "Areas/Student/Content/Requests.scss",
        "outputFile": "Areas/Student/Content/Requests.css"
    },
    {
        "inputFile": "Areas/Student/Content/TranscriptRequests.scss",
        "outputFile": "Areas/Student/Content/TranscriptRequests.css"
    },
    {
        "inputFile": "Areas/TimeManagement/Content/TimeManagement.scss",
        "outputFile": "Areas/TimeManagement/Content/TimeManagement.css"
    }
]