﻿{
    "References": [
        { "Path": "../../../Ellucian.Web.Student/Scripts/jquery-1.8.3.js", "IsTestFrameworkFile": true },
        { "Path": "../../../Ellucian.Web.Student/Scripts/account.js", "IsTestFrameworkFile": true },
        { "Path": "../../../Ellucian.Web.Student/Scripts/Components/AddressEntry/AddressModel.js", "IsTestFrameworkFile": true },
        { "Path": "../../../Ellucian.Web.Student/Scripts/knockout-3.4.0.js", "IsTestFrameworkFile": true },
        { "Path": "../../../Ellucian.Web.Student/Scripts/globalize.js", "IsTestFrameworkFile": true },
        { "Path": "../../../Ellucian.Web.Student/Scripts/global.js", "IsTestFrameworkFile": true },     
        { "Path": "../../../Ellucian.Web.Student/Scripts/knockout.mapping.js", "IsTestFrameworkFile": true },
        { "Path": "../../../Ellucian.Web.Student/Scripts/knockout.validation.js", "IsTestFrameworkFile": true },
        { "Path": "../../../Ellucian.Web.Student/Scripts/knockout-postbox.js", "IsTestFrameworkFile": true},
        { "Path": "../../../Ellucian.Web.Student/Scripts/global.js", "IsTestFrameworkFile": true },
        { "Path": "../../../Ellucian.Web.Student/Scripts/Polyfills/es6-promise.js", "IsTestFrameworkFile": true },
        { "Path": "../../../Ellucian.Web.Student/Scripts/global.js", "IsTestFrameworkFile": true },
        { "Path": "../../../Ellucian.Web.Student/Scripts/navigation.js", "IsTestFrameworkFile": true },
        { "Path": "../../../Ellucian.Web.Student.Tests/Scripts/shared.references.js", "IsTestFrameworkFile": true },        
        { "Path": "../require.js", "IsTestFrameworkFile": true},
        { "Path": "../require.config.js", "IsTestFrameworkFile": true },
        { "Path": "../../../Ellucian.Web.Student/Scripts/storage.js" },
        { "Path": "../../../Ellucian.Web.Student/Scripts/admin.js" },
        { "Path": "../../../Ellucian.Web.Student/Scripts/jquery.ui.plugin_responsive-table.js" },
        { "Path": "../../../Ellucian.Web.Student/Scripts/jquery.ui.plugin_notification-center.js" },
        { "Path": "../../../Ellucian.Web.Student/Scripts/base.view.model.js" },
        { "Path": "../../../Ellucian.Web.Student/Scripts/knockout.bindings.js" },
        { "Path": "../../../Ellucian.Web.Student/Scripts/sharedSelectedYear.js" },
        { "Path": "../../../Ellucian.Web.Student/Scripts/site.js" },
        { "Path": "../../../Ellucian.Web.Student.Tests/Scripts/initialize.custom.binding.js" },
        { "Path": "../../../Ellucian.Web.Student/Views/Shared/_GlobalStringConstantDefinitions.cshtml", "TemplateOptions": { "Mode": "Raw" } },
        { "Path": "../../../Ellucian.Web.Student/Views/Shared/_GlobalActionUrlDefinitions.cshtml", "TemplateOptions": { "Mode": "Raw" } }
    ],
    "CodeCoverageIgnores": [ "*tests.js", "text.js", "initialize.custom.binding.js" ],
    "TestHarnessReferenceMode": "AMD",
    "TestHarnessLocationMode": "SettingsFileAdjacent",
    "AMDBasePath": "../../../",
    "Framework": "jasmine",
    "TestFileTimeout": 62000
}