﻿{
	"References": [
        { "Path": "../../../../Ellucian.Web.Student/Areas/Planning/Views/Shared/_ActionUrlDefinitions.cshtml", "IsTestFrameworkFile": true, "TemplateOptions": { "Mode": "Raw" } },
        { "Path": "../../../../Ellucian.Web.Student/Areas/Planning/Views/Shared/_StringConstantDefinitions.cshtml", "IsTestFrameworkFile": true, "TemplateOptions": { "Mode": "Raw" } },
        { "Path": "../../../../Ellucian.Web.Student/Views/Shared/_GlobalStringConstantDefinitions.cshtml", "IsTestFrameworkFile": true, "TemplateOptions": { "Mode": "Raw" } },
        { "Path": "../../../../Ellucian.Web.Student/Views/Shared/_GlobalActionUrlDefinitions.cshtml", "IsTestFrameworkFile": true, "TemplateOptions": { "Mode": "Raw" } },
		{ "Path": "../../../../Ellucian.Web.Student/Scripts/jquery-1.8.3.js", "IsTestFrameworkFile": true },
        { "Path": "../../../../Ellucian.Web.Student/Scripts/knockout-3.4.0.debug.js", "IsTestFrameworkFile": true },
		{ "Path": "../../../../Ellucian.Web.Student/Scripts/knockout.mapping.js", "IsTestFrameworkFile": true },
		{ "Path": "../../../../Ellucian.Web.Student/Scripts/globalize.js", "IsTestFrameworkFile": true },
		{ "Path": "../../../../Ellucian.Web.Student/Scripts/global.js", "IsTestFrameworkFile": true },
		{ "Path": "../../../../Ellucian.Web.Student/Scripts/knockout-postbox.js", "IsTestFrameworkFile": true },
        { "Path": "../../../../Ellucian.Web.Student/Scripts/knockout.bindings.js", "IsTestFrameworkFile": true },
        { "Path": "../../../../Ellucian.Web.Student/Scripts/knockout.validation.js", "IsTestFramworkFile": true },
        { "Path": "../../../../Ellucian.Web.Student/Scripts/moment.js", "IsTestFramworkFile": true },
        { "Path": "../../../../Ellucian.Web.Student/Scripts/jquery.watermark.js", "IsTestFramworkFile": true },
        { "Path": "../../../../Ellucian.Web.Student/Scripts/base.view.model.js", "IsTestFrameworkFile": true },
        { "Path": "../../../../Ellucian.Web.Student/Scripts/storage.js", "IsTestFrameworkFile": true },
        { "Path": "../../../../Ellucian.Web.Student/Scripts/Polyfills/es6-promise.js", "IsTestFrameworkFile": true },
        { "Path": "../../../../Ellucian.Web.Student.Tests/Scripts/shared.references.js", "IsTestFrameworkFile": true },
        { "Path": "../../../../Ellucian.Web.Student/Areas/Planning/Views/Shared/_PlanViewModelMessageDefinitions.cshtml", "TemplateOptions": { "Mode": "Raw" } },
        { "Path": "../../../../Ellucian.Web.Student/Areas/Planning/Scripts/Repositories/plan.repository.js", "IsTestFrameworkFile": true },
         { "Path": "../../../../Ellucian.Web.Student/Areas/Planning/Scripts/Repositories/requirements.repository.js", "IsTestFrameworkFile": true },
        { "Path": "../../../../Ellucian.Web.Student/Scripts/Courses/course.section.details.js", "IsTestFrameworkFile": true },
        { "Path": "../../../../Ellucian.Web.Student/Scripts/jquery.ui.plugin_responsive-table.js", "IsTestFrameworkFile": true },
        { "Path": "../../../../Ellucian.Web.Student/Scripts/jquery.ui.plugin_notification-center.js", "IsTestFrameworkFile": true },
        { "Path": "../../../../Ellucian.Web.Student/Areas/Planning/Scripts/load.sample.plan.js" },
		{ "Path": "../../../../Ellucian.Web.Student/Areas/Planning/Scripts/plan.mapping.js" },
        { "Path": "../../../../Ellucian.Web.Student/Areas/Planning/Scripts/advisees.view.model.js" },
        { "Path": "../../../../Ellucian.Web.Student/Areas/Planning/Scripts/plan.archive.view.model.js" },
       { "Path": "../../../../Ellucian.Web.Student/Areas/Planning/Scripts/program.requirements.subscriber.js" },
        { "Path": "../../../../Ellucian.Web.Student/Areas/Planning/Scripts/plan.view.model.js" },
        { "Path": "../../../../Ellucian.Web.Student/Areas/Planning/Scripts/faculty.grading.midterm.grade.view.model.js" },
        { "Path": "../../../../Ellucian.Web.Student/Areas/Planning/Scripts/faculty.grading.final.grade.view.model.js" },
        { "Path": "../../../../Ellucian.Web.Student/Areas/Planning/Scripts/faculty.grading.view.model.js" },
        { "Path": "../../../../Ellucian.Web.Student/Areas/Planning/Scripts/faculty.navigation.js" },
        {"Path": "../../../../Ellucian.Web.Student/Scripts/Courses/catalog.result.js" },
        { "Path": "../../../../Ellucian.Web.Student/Scripts/Courses/catalog.result.view.model.js" },
        { "Path": "../../../../Ellucian.Web.Student/Scripts/Courses/catalog.result.view.model.factory.js" }

	],
    "CoCodeCoverageExcludes": ["*tests.js", "jquery*", "knockout*"]

}